%YAML 1.1
%TAG !u! tag:unity3d.com,2011:
--- !u!114 &11400000
MonoBehaviour:
  m_ObjectHideFlags: 0
  m_CorrespondingSourceObject: {fileID: 0}
  m_PrefabInstance: {fileID: 0}
  m_PrefabAsset: {fileID: 0}
  m_GameObject: {fileID: 0}
  m_Enabled: 1
  m_EditorHideFlags: 0
  m_Script: {fileID: 11500000, guid: 63ac47879740f944f9af1c3822cd1100, type: 3}
  m_Name: BackgroundSkin_1_Color_3
  m_EditorClassIdentifier: 
  _Sprite: {fileID: 0}
  _Color: {r: 0.9716981, g: 0.7861899, b: 0.050418302, a: 1}
  _Skybox: {fileID: 0}
  _CameraColor: {r: 0.9725491, g: 0.7843138, b: 0.050980397, a: 1}
