%YAML 1.1
%TAG !u! tag:unity3d.com,2011:
--- !u!114 &11400000
MonoBehaviour:
  m_ObjectHideFlags: 0
  m_CorrespondingSourceObject: {fileID: 0}
  m_PrefabInstance: {fileID: 0}
  m_PrefabAsset: {fileID: 0}
  m_GameObject: {fileID: 0}
  m_Enabled: 1
  m_EditorHideFlags: 0
  m_Script: {fileID: 11500000, guid: bbb281ee3bf0b054c82ac2347e9e782c, type: 3}
  m_Name: Default Local Group
  m_EditorClassIdentifier: 
  m_GroupName: Default Local Group
  m_Data:
    m_SerializedData: []
  m_GUID: 3fb906b6d62240b4da19c2a6735cc2fe
  m_SerializeEntries: []
  m_ReadOnly: 0
  m_Settings: {fileID: 11400000, guid: 5136a72ca5cbd3541872c5d3b73925d1, type: 2}
  m_SchemaSet:
    m_Schemas:
    - {fileID: 11400000, guid: 3a8f8552a2a816e4b9166f856ed993fb, type: 2}
    - {fileID: 11400000, guid: 39d283cf938ed854e8ca033c251ece7e, type: 2}
