%YAML 1.1
%TAG !u! tag:unity3d.com,2011:
--- !u!114 &11400000
MonoBehaviour:
  m_ObjectHideFlags: 0
  m_CorrespondingSourceObject: {fileID: 0}
  m_PrefabInstance: {fileID: 0}
  m_PrefabAsset: {fileID: 0}
  m_GameObject: {fileID: 0}
  m_Enabled: 1
  m_EditorHideFlags: 0
  m_Script: {fileID: 11500000, guid: bbb281ee3bf0b054c82ac2347e9e782c, type: 3}
  m_Name: Icons_Skybox
  m_EditorClassIdentifier: 
  m_GroupName: Icons_Skybox
  m_Data:
    m_SerializedData: []
  m_GUID: 9da6c94085e0dae448e9b601b6a32b24
  m_SerializeEntries:
  - m_GUID: 2b73b9263a243eb4a9e236844a577913
    m_Address: Assets/_Game/Graphics/Atlases/skybox_icons.spriteatlas
    m_ReadOnly: 0
    m_SerializedLabels: []
    m_MainAsset: {fileID: 0}
    m_TargetAsset: {fileID: 0}
  - m_GUID: e36524b71b5f26c4dbbc2b93485711e4
    m_Address: Assets/_Game/Graphics/Skyboxes/Icons/sky_1.png
    m_ReadOnly: 0
    m_SerializedLabels: []
    m_MainAsset: {fileID: 2800000, guid: e36524b71b5f26c4dbbc2b93485711e4, type: 3}
    m_TargetAsset: {fileID: 2800000, guid: e36524b71b5f26c4dbbc2b93485711e4, type: 3}
  - m_GUID: f0d1796265c37494c85d6304b1210b89
    m_Address: Assets/_Game/Graphics/Skyboxes/Icons/sky_2.png
    m_ReadOnly: 0
    m_SerializedLabels: []
    m_MainAsset: {fileID: 2800000, guid: f0d1796265c37494c85d6304b1210b89, type: 3}
    m_TargetAsset: {fileID: 2800000, guid: f0d1796265c37494c85d6304b1210b89, type: 3}
  - m_GUID: 85a159b39fe335546b1fc16507630537
    m_Address: Assets/_Game/Graphics/Skyboxes/Icons/sky_3.png
    m_ReadOnly: 0
    m_SerializedLabels: []
    m_MainAsset: {fileID: 2800000, guid: 85a159b39fe335546b1fc16507630537, type: 3}
    m_TargetAsset: {fileID: 2800000, guid: 85a159b39fe335546b1fc16507630537, type: 3}
  - m_GUID: 8364e4500c6ae134ca9989f04cefdc07
    m_Address: Assets/_Game/Graphics/Skyboxes/Icons/space_clear_1.png
    m_ReadOnly: 0
    m_SerializedLabels: []
    m_MainAsset: {fileID: 2800000, guid: 8364e4500c6ae134ca9989f04cefdc07, type: 3}
    m_TargetAsset: {fileID: 2800000, guid: 8364e4500c6ae134ca9989f04cefdc07, type: 3}
  - m_GUID: dcd74151fe5ae144295096fcf122ca52
    m_Address: Assets/_Game/Graphics/Skyboxes/Icons/space_clear_2.png
    m_ReadOnly: 0
    m_SerializedLabels: []
    m_MainAsset: {fileID: 2800000, guid: dcd74151fe5ae144295096fcf122ca52, type: 3}
    m_TargetAsset: {fileID: 2800000, guid: dcd74151fe5ae144295096fcf122ca52, type: 3}
  - m_GUID: 8f88962dbe2c2ca47afc44930f4fbbbc
    m_Address: Assets/_Game/Graphics/Skyboxes/Icons/space_planet_1.png
    m_ReadOnly: 0
    m_SerializedLabels: []
    m_MainAsset: {fileID: 2800000, guid: 8f88962dbe2c2ca47afc44930f4fbbbc, type: 3}
    m_TargetAsset: {fileID: 2800000, guid: 8f88962dbe2c2ca47afc44930f4fbbbc, type: 3}
  - m_GUID: 74a69e3ec6bd38b44b2b07531c3ab619
    m_Address: Assets/_Game/Graphics/Skyboxes/Icons/space_planet_2.png
    m_ReadOnly: 0
    m_SerializedLabels: []
    m_MainAsset: {fileID: 2800000, guid: 74a69e3ec6bd38b44b2b07531c3ab619, type: 3}
    m_TargetAsset: {fileID: 2800000, guid: 74a69e3ec6bd38b44b2b07531c3ab619, type: 3}
  m_ReadOnly: 0
  m_Settings: {fileID: 11400000, guid: 5136a72ca5cbd3541872c5d3b73925d1, type: 2}
  m_SchemaSet:
    m_Schemas:
    - {fileID: 11400000, guid: 758a3625eaa7599439b79c2d9ed65b8d, type: 2}
    - {fileID: 11400000, guid: d85fc73074de6df4fb634808a1639ca6, type: 2}
