%YAML 1.1
%TAG !u! tag:unity3d.com,2011:
--- !u!114 &11400000
MonoBehaviour:
  m_ObjectHideFlags: 0
  m_CorrespondingSourceObject: {fileID: 0}
  m_PrefabInstance: {fileID: 0}
  m_PrefabAsset: {fileID: 0}
  m_GameObject: {fileID: 0}
  m_Enabled: 1
  m_EditorHideFlags: 0
  m_Script: {fileID: 11500000, guid: bbb281ee3bf0b054c82ac2347e9e782c, type: 3}
  m_Name: Localizations
  m_EditorClassIdentifier: 
  m_GroupName: Localizations
  m_Data:
    m_SerializedData: []
  m_GUID: 1b2eb42f6999a1f4191c3207755de45a
  m_SerializeEntries:
  - m_GUID: eafd92fd4e283ba4fb25c4aea3ba3fe3
    m_Address: Assets/_Game/ScriptableObjects/Localization/Variants/French.asset
    m_ReadOnly: 0
    m_SerializedLabels: []
    m_MainAsset: {fileID: 0}
    m_TargetAsset: {fileID: 0}
  - m_GUID: 8b9bc3d7a4cc8664f93656923b29bd19
    m_Address: Assets/_Game/ScriptableObjects/Localization/Variants/Spanish.asset
    m_ReadOnly: 0
    m_SerializedLabels: []
    m_MainAsset: {fileID: 0}
    m_TargetAsset: {fileID: 0}
  - m_GUID: 4809fc70ff6e0044aa05e930ecbde59d
    m_Address: Assets/_Game/ScriptableObjects/Localization/Variants/Italian.asset
    m_ReadOnly: 0
    m_SerializedLabels: []
    m_MainAsset: {fileID: 0}
    m_TargetAsset: {fileID: 0}
  - m_GUID: fb5c43b6d5515cb40822189011528e18
    m_Address: Assets/_Game/ScriptableObjects/Localization/Variants/German.asset
    m_ReadOnly: 0
    m_SerializedLabels: []
    m_MainAsset: {fileID: 0}
    m_TargetAsset: {fileID: 0}
  - m_GUID: 0a7d639113d750b43896df171d309744
    m_Address: Assets/_Game/ScriptableObjects/Localization/Variants/Russian.asset
    m_ReadOnly: 0
    m_SerializedLabels: []
    m_MainAsset: {fileID: 0}
    m_TargetAsset: {fileID: 0}
  - m_GUID: 0854e2638e8b6f044a2e9f6d47e89119
    m_Address: Assets/_Game/ScriptableObjects/Localization/Variants/English.asset
    m_ReadOnly: 0
    m_SerializedLabels: []
    m_MainAsset: {fileID: 0}
    m_TargetAsset: {fileID: 0}
  - m_GUID: 0d46cf1a2a3a23b45920089efb62e936
    m_Address: Assets/_Game/Graphics/Fonts/TMP/English.asset
    m_ReadOnly: 0
    m_SerializedLabels: []
    m_MainAsset: {fileID: 11400000, guid: 0d46cf1a2a3a23b45920089efb62e936, type: 2}
    m_TargetAsset: {fileID: 11400000, guid: 0d46cf1a2a3a23b45920089efb62e936, type: 2}
  - m_GUID: 1ea38f7f0826f7049b569729313763b3
    m_Address: Assets/_Game/Graphics/Fonts/TMP/Icons.asset
    m_ReadOnly: 0
    m_SerializedLabels: []
    m_MainAsset: {fileID: 11400000, guid: 1ea38f7f0826f7049b569729313763b3, type: 2}
    m_TargetAsset: {fileID: 11400000, guid: 1ea38f7f0826f7049b569729313763b3, type: 2}
  - m_GUID: c7b9d92be3e1b0a4bac57a2fa3abf0ec
    m_Address: Assets/_Game/Graphics/Fonts/TMP/Prices.asset
    m_ReadOnly: 0
    m_SerializedLabels: []
    m_MainAsset: {fileID: 11400000, guid: c7b9d92be3e1b0a4bac57a2fa3abf0ec, type: 2}
    m_TargetAsset: {fileID: 11400000, guid: c7b9d92be3e1b0a4bac57a2fa3abf0ec, type: 2}
  - m_GUID: c609df6193d24854e9cf97b258fe19f5
    m_Address: Assets/_Game/Graphics/Fonts/TMP/Russian.asset
    m_ReadOnly: 0
    m_SerializedLabels: []
    m_MainAsset: {fileID: 11400000, guid: c609df6193d24854e9cf97b258fe19f5, type: 2}
    m_TargetAsset: {fileID: 11400000, guid: c609df6193d24854e9cf97b258fe19f5, type: 2}
  m_ReadOnly: 0
  m_Settings: {fileID: 11400000, guid: 5136a72ca5cbd3541872c5d3b73925d1, type: 2}
  m_SchemaSet:
    m_Schemas:
    - {fileID: 11400000, guid: 40eeb225dbc68eb4e9f7b2b5b45ba48f, type: 2}
    - {fileID: 11400000, guid: 837521439de5a4c44a4de44706f49542, type: 2}
