%YAML 1.1
%TAG !u! tag:unity3d.com,2011:
--- !u!114 &11400000
MonoBehaviour:
  m_ObjectHideFlags: 0
  m_CorrespondingSourceObject: {fileID: 0}
  m_PrefabInstance: {fileID: 0}
  m_PrefabAsset: {fileID: 0}
  m_GameObject: {fileID: 0}
  m_Enabled: 1
  m_EditorHideFlags: 0
  m_Script: {fileID: 11500000, guid: bbb281ee3bf0b054c82ac2347e9e782c, type: 3}
  m_Name: Materials_Platform
  m_EditorClassIdentifier: 
  m_GroupName: Materials_Platform
  m_Data:
    m_SerializedData: []
  m_GUID: 4aebe1b746442664a9c99f360279cc03
  m_SerializeEntries:
  - m_GUID: 84f9cc22614f3fd4ea8a390c9bb850b7
    m_Address: Assets/_Game/Graphics/Materials/Platform/Platfrom_glass.mat
    m_ReadOnly: 0
    m_SerializedLabels: []
    m_MainAsset: {fileID: 2100000, guid: 84f9cc22614f3fd4ea8a390c9bb850b7, type: 2}
    m_TargetAsset: {fileID: 2100000, guid: 84f9cc22614f3fd4ea8a390c9bb850b7, type: 2}
  - m_GUID: 45d04db69b3f01e4e8e033bbd44ef1d5
    m_Address: Assets/_Game/Graphics/Materials/Platform/Platform_art_lava.mat
    m_ReadOnly: 0
    m_SerializedLabels: []
    m_MainAsset: {fileID: 2100000, guid: 45d04db69b3f01e4e8e033bbd44ef1d5, type: 2}
    m_TargetAsset: {fileID: 2100000, guid: 45d04db69b3f01e4e8e033bbd44ef1d5, type: 2}
  - m_GUID: 07dd06467e545af4aad836e1479110b8
    m_Address: Assets/_Game/Graphics/Materials/Platform/Platform_art_stones.mat
    m_ReadOnly: 0
    m_SerializedLabels: []
    m_MainAsset: {fileID: 2100000, guid: 07dd06467e545af4aad836e1479110b8, type: 2}
    m_TargetAsset: {fileID: 2100000, guid: 07dd06467e545af4aad836e1479110b8, type: 2}
  - m_GUID: bfdcf3c8823f3fa478b084675bc15c75
    m_Address: Assets/_Game/Graphics/Materials/Platform/Platform_energy.mat
    m_ReadOnly: 0
    m_SerializedLabels: []
    m_MainAsset: {fileID: 2100000, guid: bfdcf3c8823f3fa478b084675bc15c75, type: 2}
    m_TargetAsset: {fileID: 2100000, guid: bfdcf3c8823f3fa478b084675bc15c75, type: 2}
  - m_GUID: 7b09dd12168ba304fa33b4dfc5cc6598
    m_Address: Assets/_Game/Graphics/Materials/Platform/Platform_ground_2.mat
    m_ReadOnly: 0
    m_SerializedLabels: []
    m_MainAsset: {fileID: 2100000, guid: 7b09dd12168ba304fa33b4dfc5cc6598, type: 2}
    m_TargetAsset: {fileID: 2100000, guid: 7b09dd12168ba304fa33b4dfc5cc6598, type: 2}
  - m_GUID: e8916c2c6fc80f344a1ce1a43dac89a2
    m_Address: Assets/_Game/Graphics/Materials/Platform/Platform_cosmic_1.mat
    m_ReadOnly: 0
    m_SerializedLabels: []
    m_MainAsset: {fileID: 2100000, guid: e8916c2c6fc80f344a1ce1a43dac89a2, type: 2}
    m_TargetAsset: {fileID: 2100000, guid: e8916c2c6fc80f344a1ce1a43dac89a2, type: 2}
  - m_GUID: 97a5f0125178e104baf8b0c16e5bf930
    m_Address: Assets/_Game/Graphics/Materials/Platform/Platform_cosmic_2.mat
    m_ReadOnly: 0
    m_SerializedLabels: []
    m_MainAsset: {fileID: 2100000, guid: 97a5f0125178e104baf8b0c16e5bf930, type: 2}
    m_TargetAsset: {fileID: 2100000, guid: 97a5f0125178e104baf8b0c16e5bf930, type: 2}
  m_ReadOnly: 0
  m_Settings: {fileID: 11400000, guid: 5136a72ca5cbd3541872c5d3b73925d1, type: 2}
  m_SchemaSet:
    m_Schemas:
    - {fileID: 11400000, guid: bbc368081bb5547438b675bcc04901b4, type: 2}
    - {fileID: 11400000, guid: dcba51ec9d0b9ba4eb81d63318718556, type: 2}
