%YAML 1.1
%TAG !u! tag:unity3d.com,2011:
--- !u!687078895 &4343727234628468602
SpriteAtlas:
  m_ObjectHideFlags: 0
  m_CorrespondingSourceObject: {fileID: 0}
  m_PrefabInstance: {fileID: 0}
  m_PrefabAsset: {fileID: 0}
  m_Name: gem_skins_icons
  m_EditorData:
    serializedVersion: 2
    textureSettings:
      serializedVersion: 2
      anisoLevel: 1
      compressionQuality: 50
      maxTextureSize: 2048
      textureCompression: 0
      filterMode: 1
      generateMipMaps: 0
      readable: 0
      crunchedCompression: 0
      sRGB: 1
    platformSettings: []
    packingSettings:
      serializedVersion: 2
      padding: 4
      blockOffset: 1
      allowAlphaSplitting: 0
      enableRotation: 0
      enableTightPacking: 0
    secondaryTextureSettings: {}
    variantMultiplier: 1
    packables:
    - {fileID: 102900000, guid: 18c58bfe1d57de74ebbaaf2082a88d23, type: 3}
    totalSpriteSurfaceArea: 720896
    bindAsDefault: 1
    isAtlasV2: 0
    cachedData: {fileID: 0}
  m_MasterAtlas: {fileID: 0}
  m_PackedSprites:
  - {fileID: 21300000, guid: 90464f6072b9baf4280b1ea1489ec80b, type: 3}
  - {fileID: 21300000, guid: fd4b8092b2673fe4ea64681c5b9f813e, type: 3}
  - {fileID: 21300000, guid: 5381fc93d8d9ce94f90fc81c64c95eff, type: 3}
  - {fileID: 21300000, guid: be1ceae4fe5422d4784ce5810d5a905c, type: 3}
  - {fileID: 21300000, guid: 6d582d95c12c24145854d24e14488725, type: 3}
  - {fileID: 21300000, guid: b7a4efe6f4ff5ad4593d085897d59dad, type: 3}
  - {fileID: 21300000, guid: 130de917076a8454a8b092c06e2ad304, type: 3}
  - {fileID: 21300000, guid: 271bfbbb2b5a4e44492f3f6d19154ad2, type: 3}
  - {fileID: 21300000, guid: d1d664cc8312c9b4ca961d4c87138e00, type: 3}
  - {fileID: 21300000, guid: 695edc2fe58ca26439b42054e89e473c, type: 3}
  - {fileID: 21300000, guid: 0b9ab63fe2129e548b77030b2523e522, type: 3}
  m_PackedSpriteNamesToIndex:
  - gem_white
  - gem_orange
  - gem_green
  - gem_turquoise
  - gem_pink
  - gem_blue
  - gem_red
  - gem_emerald
  - gem_yellow
  - gem_black
  - gem_violet
  m_RenderDataMap: {}
  m_Tag: gem_skins_icons
  m_IsVariant: 0
