%YAML 1.1
%TAG !u! tag:unity3d.com,2011:
--- !u!687078895 &4343727234628468602
SpriteAtlas:
  m_ObjectHideFlags: 0
  m_CorrespondingSourceObject: {fileID: 0}
  m_PrefabInstance: {fileID: 0}
  m_PrefabAsset: {fileID: 0}
  m_Name: ui_iap
  m_EditorData:
    serializedVersion: 2
    textureSettings:
      serializedVersion: 2
      anisoLevel: 1
      compressionQuality: 50
      maxTextureSize: 2048
      textureCompression: 0
      filterMode: 1
      generateMipMaps: 0
      readable: 0
      crunchedCompression: 0
      sRGB: 1
    platformSettings: []
    packingSettings:
      serializedVersion: 2
      padding: 4
      blockOffset: 1
      allowAlphaSplitting: 0
      enableRotation: 0
      enableTightPacking: 0
    secondaryTextureSettings: {}
    variantMultiplier: 1
    packables:
    - {fileID: 102900000, guid: 99a954fd92228ff45aeba01f4ef2d644, type: 3}
    totalSpriteSurfaceArea: 1089536
    bindAsDefault: 1
    isAtlasV2: 0
    cachedData: {fileID: 0}
  m_MasterAtlas: {fileID: 0}
  m_PackedSprites:
  - {fileID: 21300000, guid: 875430462ca8d0a40925e7f38eedf05a, type: 3}
  - {fileID: 21300000, guid: cd579a07dd2781049b2d1040edc4eb39, type: 3}
  - {fileID: 21300000, guid: 05c8f9e7bc701b14a8ced07d5814e8a7, type: 3}
  - {fileID: 21300000, guid: 9647d689e58381e459a560a6f975d434, type: 3}
  - {fileID: 21300000, guid: bc36010de09a5d148b6142d2ac7908f7, type: 3}
  m_PackedSpriteNamesToIndex:
  - no_ads
  - gem_high_quantity
  - gem_low_quantity
  - best_offer
  - gem_mid_quantity
  m_RenderDataMap: {}
  m_Tag: ui_iap
  m_IsVariant: 0
