%YAML 1.1
%TAG !u! tag:unity3d.com,2011:
--- !u!114 &11400000
MonoBehaviour:
  m_ObjectHideFlags: 0
  m_CorrespondingSourceObject: {fileID: 0}
  m_PrefabInstance: {fileID: 0}
  m_PrefabAsset: {fileID: 0}
  m_GameObject: {fileID: 0}
  m_Enabled: 1
  m_EditorHideFlags: 0
  m_Script: {fileID: 11500000, guid: 09190c581a0596e499474c09a27da468, type: 3}
  m_Name: GemSkin_Black
  m_EditorClassIdentifier: 
  _MaterialReference:
    m_AssetGUID: bb4570e9e92024a4d9c4d43a3f007ab4
    m_SubObjectName: 
    m_SubObjectType: 
