%YAML 1.1
%TAG !u! tag:unity3d.com,2011:
--- !u!114 &11400000
MonoBehaviour:
  m_ObjectHideFlags: 0
  m_CorrespondingSourceObject: {fileID: 0}
  m_PrefabInstance: {fileID: 0}
  m_PrefabAsset: {fileID: 0}
  m_GameObject: {fileID: 0}
  m_Enabled: 1
  m_EditorHideFlags: 0
  m_Script: {fileID: 11500000, guid: 09190c581a0596e499474c09a27da468, type: 3}
  m_Name: GemSkin_Pink
  m_EditorClassIdentifier: 
  _MaterialReference:
    m_AssetGUID: 2e630447b8658b44a920355217d81b2d
    m_SubObjectName: 
    m_SubObjectType: 
