%YAML 1.1
%TAG !u! tag:unity3d.com,2011:
--- !u!114 &11400000
MonoBehaviour:
  m_ObjectHideFlags: 0
  m_CorrespondingSourceObject: {fileID: 0}
  m_PrefabInstance: {fileID: 0}
  m_PrefabAsset: {fileID: 0}
  m_GameObject: {fileID: 0}
  m_Enabled: 1
  m_EditorHideFlags: 0
  m_Script: {fileID: 11500000, guid: b96d03caf3c116645a214bb3c0d9589e, type: 3}
  m_Name: MusicLibrary
  m_EditorClassIdentifier: 
  _Music:
  - {fileID: 8300000, guid: 65156435e7a8e9747a1467ae7377d694, type: 3}
