%YAML 1.1
%TAG !u! tag:unity3d.com,2011:
--- !u!114 &11400000
MonoBehaviour:
  m_ObjectHideFlags: 0
  m_CorrespondingSourceObject: {fileID: 0}
  m_PrefabInstance: {fileID: 0}
  m_PrefabAsset: {fileID: 0}
  m_GameObject: {fileID: 0}
  m_Enabled: 1
  m_EditorHideFlags: 0
  m_Script: {fileID: 11500000, guid: f75e2970433e8584aa7f9005ad10d174, type: 3}
  m_Name: RateSettings
  m_EditorClassIdentifier: 
  _Urls:
  - _Platform: 11
    _Url: https://play.google.com/store/apps/details?id=com.ask2dio.twisttwast
