%YAML 1.1
%TAG !u! tag:unity3d.com,2011:
--- !u!114 &11400000
MonoBehaviour:
  m_ObjectHideFlags: 0
  m_CorrespondingSourceObject: {fileID: 0}
  m_PrefabInstance: {fileID: 0}
  m_PrefabAsset: {fileID: 0}
  m_GameObject: {fileID: 0}
  m_Enabled: 1
  m_EditorHideFlags: 0
  m_Script: {fileID: 11500000, guid: a39cdc5d80eeeab448ad5030e4ee4ede, type: 3}
  m_Name: GameShareSettings
  m_EditorClassIdentifier: 
  _MessageText: Race with me in https://play.google.com/store/apps/details?id=com.ask2dio.twisttwast
  _PictureText: 
  _UseImage: 0
  _ImagePath: 
  _BackgroundColor: {r: 0.16647384, g: 0.8207544, b: 0.8207547, a: 1}
