{
    "name": "GameAssembly",
    "rootNamespace": "",
    "references": [
        "Cinemachine",
        "Unity.TextMeshPro",
        "Zenject",
        "Core",
        "Yandex",
        "NativeShare.Runtime",
        "Billing",
        "GooglePlayGames",
        "GoogleMobileAds",
        "Unity.Notifications.Android",
        "Unity.Addressables",
        "Unity.ResourceManager"
    ],
    "includePlatforms": [],
    "excludePlatforms": [],
    "allowUnsafeCode": false,
    "overrideReferences": false,
    "precompiledReferences": [],
    "autoReferenced": true,
    "defineConstraints": [],
    "versionDefines": [],
    "noEngineReferences": false
}