%YAML 1.1
%TAG !u! tag:unity3d.com,2011:
--- !u!114 &11400000
MonoBehaviour:
  m_ObjectHideFlags: 0
  m_CorrespondingSourceObject: {fileID: 0}
  m_PrefabInstance: {fileID: 0}
  m_PrefabAsset: {fileID: 0}
  m_GameObject: {fileID: 0}
  m_Enabled: 1
  m_EditorHideFlags: 0
  m_Script: {fileID: 11500000, guid: 40f7877ce64d4af9b68c6b147fb8c2bb, type: 3}
  m_Name: ToastsLibrary
  m_EditorClassIdentifier: 
  _Toats:
  - _Type: 1
    _Toast:
      _Text: toast.not_enough_gems
      _Duration: 3
      _NeedLocalize: 1
  - _Type: 3
    _Toast:
      _Text: toast.cant_sync_cloud_data
      _Duration: 3
      _NeedLocalize: 1
