%YAML 1.1
%TAG !u! tag:unity3d.com,2011:
--- !u!114 &3468709894182735330
MonoBehaviour:
  m_ObjectHideFlags: 0
  m_CorrespondingSourceObject: {fileID: 0}
  m_PrefabInstance: {fileID: 0}
  m_PrefabAsset: {fileID: 0}
  m_GameObject: {fileID: 3375910994752326085}
  m_Enabled: 1
  m_EditorHideFlags: 0
  m_Script: {fileID: 11500000, guid: 5fec1c50314045ff8904863b2dd5a0ab, type: 3}
  m_Name: 
  m_EditorClassIdentifier: 
  _Social: 0
--- !u!1001 &1151525063387579943
PrefabInstance:
  m_ObjectHideFlags: 0
  serializedVersion: 2
  m_Modification:
    m_TransformParent: {fileID: 0}
    m_Modifications:
    - target: {fileID: 2387660797827436514, guid: 5ebe19e1126b3574e98887123bd00b6a,
        type: 3}
      propertyPath: m_Name
      value: SocialButton Variant
      objectReference: {fileID: 0}
    - target: {fileID: 8660569570962024370, guid: 5ebe19e1126b3574e98887123bd00b6a,
        type: 3}
      propertyPath: m_Pivot.x
      value: 0.5
      objectReference: {fileID: 0}
    - target: {fileID: 8660569570962024370, guid: 5ebe19e1126b3574e98887123bd00b6a,
        type: 3}
      propertyPath: m_Pivot.y
      value: 0.5
      objectReference: {fileID: 0}
    - target: {fileID: 8660569570962024370, guid: 5ebe19e1126b3574e98887123bd00b6a,
        type: 3}
      propertyPath: m_RootOrder
      value: 0
      objectReference: {fileID: 0}
    - target: {fileID: 8660569570962024370, guid: 5ebe19e1126b3574e98887123bd00b6a,
        type: 3}
      propertyPath: m_AnchorMax.x
      value: 0
      objectReference: {fileID: 0}
    - target: {fileID: 8660569570962024370, guid: 5ebe19e1126b3574e98887123bd00b6a,
        type: 3}
      propertyPath: m_AnchorMax.y
      value: 0
      objectReference: {fileID: 0}
    - target: {fileID: 8660569570962024370, guid: 5ebe19e1126b3574e98887123bd00b6a,
        type: 3}
      propertyPath: m_AnchorMin.x
      value: 0
      objectReference: {fileID: 0}
    - target: {fileID: 8660569570962024370, guid: 5ebe19e1126b3574e98887123bd00b6a,
        type: 3}
      propertyPath: m_AnchorMin.y
      value: 0
      objectReference: {fileID: 0}
    - target: {fileID: 8660569570962024370, guid: 5ebe19e1126b3574e98887123bd00b6a,
        type: 3}
      propertyPath: m_SizeDelta.x
      value: 200
      objectReference: {fileID: 0}
    - target: {fileID: 8660569570962024370, guid: 5ebe19e1126b3574e98887123bd00b6a,
        type: 3}
      propertyPath: m_SizeDelta.y
      value: 200
      objectReference: {fileID: 0}
    - target: {fileID: 8660569570962024370, guid: 5ebe19e1126b3574e98887123bd00b6a,
        type: 3}
      propertyPath: m_LocalPosition.x
      value: 0
      objectReference: {fileID: 0}
    - target: {fileID: 8660569570962024370, guid: 5ebe19e1126b3574e98887123bd00b6a,
        type: 3}
      propertyPath: m_LocalPosition.y
      value: 0
      objectReference: {fileID: 0}
    - target: {fileID: 8660569570962024370, guid: 5ebe19e1126b3574e98887123bd00b6a,
        type: 3}
      propertyPath: m_LocalPosition.z
      value: 0
      objectReference: {fileID: 0}
    - target: {fileID: 8660569570962024370, guid: 5ebe19e1126b3574e98887123bd00b6a,
        type: 3}
      propertyPath: m_LocalRotation.w
      value: 1
      objectReference: {fileID: 0}
    - target: {fileID: 8660569570962024370, guid: 5ebe19e1126b3574e98887123bd00b6a,
        type: 3}
      propertyPath: m_LocalRotation.x
      value: 0
      objectReference: {fileID: 0}
    - target: {fileID: 8660569570962024370, guid: 5ebe19e1126b3574e98887123bd00b6a,
        type: 3}
      propertyPath: m_LocalRotation.y
      value: 0
      objectReference: {fileID: 0}
    - target: {fileID: 8660569570962024370, guid: 5ebe19e1126b3574e98887123bd00b6a,
        type: 3}
      propertyPath: m_LocalRotation.z
      value: 0
      objectReference: {fileID: 0}
    - target: {fileID: 8660569570962024370, guid: 5ebe19e1126b3574e98887123bd00b6a,
        type: 3}
      propertyPath: m_AnchoredPosition.x
      value: 0
      objectReference: {fileID: 0}
    - target: {fileID: 8660569570962024370, guid: 5ebe19e1126b3574e98887123bd00b6a,
        type: 3}
      propertyPath: m_AnchoredPosition.y
      value: 0
      objectReference: {fileID: 0}
    - target: {fileID: 8660569570962024370, guid: 5ebe19e1126b3574e98887123bd00b6a,
        type: 3}
      propertyPath: m_LocalEulerAnglesHint.x
      value: 0
      objectReference: {fileID: 0}
    - target: {fileID: 8660569570962024370, guid: 5ebe19e1126b3574e98887123bd00b6a,
        type: 3}
      propertyPath: m_LocalEulerAnglesHint.y
      value: 0
      objectReference: {fileID: 0}
    - target: {fileID: 8660569570962024370, guid: 5ebe19e1126b3574e98887123bd00b6a,
        type: 3}
      propertyPath: m_LocalEulerAnglesHint.z
      value: 0
      objectReference: {fileID: 0}
    - target: {fileID: 8787971290160422041, guid: 5ebe19e1126b3574e98887123bd00b6a,
        type: 3}
      propertyPath: m_OnClick.m_PersistentCalls.m_Calls.Array.size
      value: 2
      objectReference: {fileID: 0}
    - target: {fileID: 8787971290160422041, guid: 5ebe19e1126b3574e98887123bd00b6a,
        type: 3}
      propertyPath: m_OnClick.m_PersistentCalls.m_Calls.Array.data[1].m_Mode
      value: 1
      objectReference: {fileID: 0}
    - target: {fileID: 8787971290160422041, guid: 5ebe19e1126b3574e98887123bd00b6a,
        type: 3}
      propertyPath: m_OnClick.m_PersistentCalls.m_Calls.Array.data[1].m_Target
      value: 
      objectReference: {fileID: 3468709894182735330}
    - target: {fileID: 8787971290160422041, guid: 5ebe19e1126b3574e98887123bd00b6a,
        type: 3}
      propertyPath: m_OnClick.m_PersistentCalls.m_Calls.Array.data[1].m_CallState
      value: 2
      objectReference: {fileID: 0}
    - target: {fileID: 8787971290160422041, guid: 5ebe19e1126b3574e98887123bd00b6a,
        type: 3}
      propertyPath: m_OnClick.m_PersistentCalls.m_Calls.Array.data[1].m_MethodName
      value: Click
      objectReference: {fileID: 0}
    - target: {fileID: 8787971290160422041, guid: 5ebe19e1126b3574e98887123bd00b6a,
        type: 3}
      propertyPath: m_OnClick.m_PersistentCalls.m_Calls.Array.data[1].m_TargetAssemblyTypeName
      value: Assets._Game.Scripts.Game.Social.SocialButton, GameAssembly
      objectReference: {fileID: 0}
    - target: {fileID: 8787971290160422041, guid: 5ebe19e1126b3574e98887123bd00b6a,
        type: 3}
      propertyPath: m_OnClick.m_PersistentCalls.m_Calls.Array.data[1].m_Arguments.m_ObjectArgumentAssemblyTypeName
      value: UnityEngine.Object, UnityEngine
      objectReference: {fileID: 0}
    m_RemovedComponents: []
  m_SourcePrefab: {fileID: 100100000, guid: 5ebe19e1126b3574e98887123bd00b6a, type: 3}
--- !u!1 &3375910994752326085 stripped
GameObject:
  m_CorrespondingSourceObject: {fileID: 2387660797827436514, guid: 5ebe19e1126b3574e98887123bd00b6a,
    type: 3}
  m_PrefabInstance: {fileID: 1151525063387579943}
  m_PrefabAsset: {fileID: 0}
