{
    "name": "GooglePlayGames",
    "references": [
        "GUID:2bafac87e7f4b9b418d9448d219b01ab",
        "GUID:343deaaf83e0cee4ca978e7df0b80d21",
        "GUID:2665a8d13d1b3f18800f46e256720795",
        "GUID:3ce0cf2654ad3464aa58eb2e27f77f0d",
        "GUID:4307f53044263cf4b835bd812fc161a4"
    ],
    "includePlatforms": [],
    "excludePlatforms": [],
    "allowUnsafeCode": false,
    "overrideReferences": false,
    "precompiledReferences": [],
    "autoReferenced": true,
    "defineConstraints": [],
    "versionDefines": [],
    "noEngineReferences": false
}